0.005;60297.6;-1;0;
0.00517977;58225.6;-1;0;
0.005366;56434.1;-1;0;
0.00555892;54886.6;-1;0;
0.00575878;53551.7;-1;0;
0.00596583;52401.9;-1;0;
0.00618032;51413.6;-1;0;
0.00640253;50566.2;-1;0;
0.00663272;49842;-1;0;
0.00687119;49225.6;-1;0;
0.00711823;48703.8;-1;0;
0.00737415;48265;-1;0;
0.00763928;47899.5;-1;0;
0.00791394;47598.7;-1;0;
0.00819847;47355.5;-1;0;
0.00849323;47163.5;-1;0;
0.00879859;47017.6;-1;0;
0.00911493;46913.1;-1;0;
0.00944264;46846.5;-1;0;
0.00978214;46814.5;-1;0;
0.0101338;46814.6;-1;0;
0.0104982;46844.7;-1;0;
0.0108756;46903.2;-1;0;
0.0112666;46988.8;-1;0;
0.0116717;47100.7;-1;0;
0.0120914;47238.4;-1;0;
0.0125261;47401.5;-1;0;
0.0129764;47590.1;-1;0;
0.013443;47804.4;-1;0;
0.0139263;48044.9;-1;0;
0.014427;48312.1;-1;0;
0.0149457;48606.9;-1;0;
0.015483;48930.2;-1;0;
0.0160397;49282.8;-1;0;
0.0166164;49665.7;-1;0;
0.0172138;50079.7;-1;0;
0.0178327;50525.2;-1;0;
0.0184738;51002.4;-1;0;
0.019138;51510.5;-1;0;
0.0198261;52048;-1;0;
0.0205389;52611.8;-1;0;
0.0212774;53196.9;-1;0;
0.0220424;53795.8;-1;0;
0.0228349;54398.1;-1;0;
0.0236559;54989.3;-1;0;
0.0245064;55550.9;-1;0;
0.0253875;56059.5;-1;0;
0.0263002;56487.1;-1;0;
0.0272458;56801;-1;0;
0.0282254;56964.8;-1;0;
0.0292402;56940.4;-1;0;
0.0302915;56688.2;-1;0;
0.0313805;56172.1;-1;0;
0.0325088;55360.4;-1;0;
0.0336776;54229.4;-1;0;
0.0348884;52765.4;-1;0;
0.0361428;50967.2;-1;0;
0.0374422;48846.6;-1;0;
0.0387884;46429;-1;0;
0.0401829;43752;-1;0;
0.0416277;40864;-1;0;
0.0431243;37821.2;-1;0;
0.0446748;34684.7;-1;0;
0.046281;31517;-1;0;
0.0479449;28378.9;-1;0;
0.0496687;25326.4;-1;0;
0.0514545;22408.6;-1;0;
0.0533044;19665.9;-1;0;
0.0552209;17128.8;-1;0;
0.0572063;14817.4;-1;0;
0.0592631;12742.3;-1;0;
0.0613938;10904.6;-1;0;
0.0636011;9297.91;-1;0;
0.0658877;7909.22;-1;0;
0.0682566;6720.99;-1;0;
0.0707107;5712.7;-1;0;
0.073253;4862.41;-1;0;
0.0758867;4148.18;-1;0;
0.078615;3549.18;-1;0;
0.0814415;3046.43;-1;0;
0.0843696;2623.5;-1;0;
0.087403;2266.19;-1;0;
0.0905454;1962.98;-1;0;
0.0938008;1704.5;-1;0;
0.0971733;1483.26;-1;0;
0.100667;1293.31;-1;0;
0.104286;1129.86;-1;0;
0.108036;989.002;-1;0;
0.11192;867.627;-1;0;
0.115944;762.916;-1;0;
0.120112;672.597;-1;0;
0.124431;594.686;-1;0;
0.128905;527.502;-1;0;
0.133539;469.468;-1;0;
0.13834;419.408;-1;0;
0.143314;376.193;-1;0;
0.148467;338.875;-1;0;
0.153805;306.642;-1;0;
0.159334;278.793;-1;0;
0.165063;254.728;-1;0;
0.170998;233.927;-1;0;
0.177146;215.942;-1;0;
0.183515;200.388;-1;0;
0.190112;186.935;-1;0;
0.196948;175.296;-1;0;
0.204029;165.225;-1;0;
0.211364;156.508;-1;0;
0.218963;148.963;-1;0;
0.226836;142.431;-1;0;
0.234991;136.774;-1;0;
0.24344;131.875;-1;0;
0.252193;127.631;-1;0;
0.26126;123.955;-1;0;
0.270653;120.769;-1;0;
0.280384;118.009;-1;0;
0.290464;115.617;-1;0;
0.300908;113.544;-1;0;
0.311726;111.747;-1;0;
0.322934;110.189;-1;0;
0.334544;108.838;-1;0;
0.346572;107.667;-1;0;
0.359033;106.651;-1;0;
0.371941;105.77;-1;0;
0.385314;105.006;-1;0;
0.399167;104.344;-1;0;
0.413519;103.769;-1;0;
0.428386;103.27;-1;0;
0.443788;102.838;-1;0;
0.459744;102.463;-1;0;
0.476273;102.137;-1;0;
0.493396;101.855;-1;0;
0.511136;101.61;-1;0;
0.529513;101.397;-1;0;
0.54855;101.213;-1;0;
0.568273;101.052;-1;0;
0.588704;100.913;-1;0;
0.60987;100.793;-1;0;
0.631797;100.688;-1;0;
0.654512;100.597;-1;0;
0.678044;100.519;-1;0;
0.702422;100.45;-1;0;
0.727676;100.391;-1;0;
0.753839;100.642;-1;0;
0.780942;100.294;-1;0;
0.809019;100.256;-1;0;
0.838106;100.222;-1;0;
0.868239;100.193;-1;0;
0.899455;100.167;-1;0;
0.931793;100.145;-1;0;
0.965294;100.126;-1;0;
1;100.109;-1;0;
