%!PS-Adobe-3.0 EPSF-3.0
%%Title: pinhole_data.eps
%%Creator: matplotlib version 1.3.1, http://matplotlib.org/
%%CreationDate: Thu Aug  7 15:14:43 2014
%%Orientation: portrait
%%BoundingBox: 18 180 594 612
%%EndComments
%%BeginProlog
/mpldict 8 dict def
mpldict begin
/m { moveto } bind def
/l { lineto } bind def
/r { rlineto } bind def
/c { curveto } bind def
/cl { closepath } bind def
/box {
m
1 index 0 r
0 exch r
neg 0 r
cl
} bind def
/clipbox {
box
clip
newpath
} bind def
%!PS-Adobe-3.0 Resource-Font
%%Title: Bitstream Vera Sans
%%Copyright: Copyright (c) 2003 by Bitstream, Inc. All Rights Reserved.
%%Creator: Converted from TrueType to type 3 by PPR
25 dict begin
/_d{bind def}bind def
/_m{moveto}_d
/_l{lineto}_d
/_cl{closepath eofill}_d
/_c{curveto}_d
/_sc{7 -1 roll{setcachedevice}{pop pop pop pop pop pop}ifelse}_d
/_e{exec}_d
/FontName /BitstreamVeraSans-Roman def
/PaintType 0 def
/FontMatrix[.001 0 0 .001 0 0]def
/FontBBox[-183 -236 1287 928]def
/FontType 3 def
/Encoding [ /space /parenleft /parenright /period /slash /zero /one /two /A /I /N /Q /S /U /a /e /i /m /n /o /r /s /t /y ] def
/FontInfo 10 dict dup begin
/FamilyName (Bitstream Vera Sans) def
/FullName (Bitstream Vera Sans) def
/Notice (Copyright (c) 2003 by Bitstream, Inc. All Rights Reserved. Bitstream Vera is a trademark of Bitstream, Inc.) def
/Weight (Roman) def
/Version (Release 1.10) def
/ItalicAngle 0.0 def
/isFixedPitch false def
/UnderlinePosition -213 def
/UnderlineThickness 143 def
end readonly def
/CharStrings 24 dict dup begin
/space{318 0 0 0 0 0 _sc
}_d
/parenleft{390 0 86 -131 310 759 _sc
310 759 _m
266 683 234 609 213 536 _c
191 463 181 389 181 314 _c
181 238 191 164 213 91 _c
234 17 266 -56 310 -131 _c
232 -131 _l
183 -54 146 20 122 94 _c
98 168 86 241 86 314 _c
86 386 98 459 122 533 _c
146 607 182 682 232 759 _c
310 759 _l
_cl}_d
/parenright{390 0 80 -131 304 759 _sc
80 759 _m
158 759 _l
206 682 243 607 267 533 _c
291 459 304 386 304 314 _c
304 241 291 168 267 94 _c
243 20 206 -54 158 -131 _c
80 -131 _l
123 -56 155 17 177 91 _c
198 164 209 238 209 314 _c
209 389 198 463 177 536 _c
155 609 123 683 80 759 _c
_cl}_d
/period{318 0 107 0 210 124 _sc
107 124 _m
210 124 _l
210 0 _l
107 0 _l
107 124 _l
_cl}_d
/slash{337 0 0 -92 337 729 _sc
254 729 _m
337 729 _l
83 -92 _l
0 -92 _l
254 729 _l
_cl}_d
/zero{636 0 66 -13 570 742 _sc
318 664 _m
267 664 229 639 203 589 _c
177 539 165 464 165 364 _c
165 264 177 189 203 139 _c
229 89 267 64 318 64 _c
369 64 407 89 433 139 _c
458 189 471 264 471 364 _c
471 464 458 539 433 589 _c
407 639 369 664 318 664 _c
318 742 _m
399 742 461 709 505 645 _c
548 580 570 486 570 364 _c
570 241 548 147 505 83 _c
461 19 399 -13 318 -13 _c
236 -13 173 19 130 83 _c
87 147 66 241 66 364 _c
66 486 87 580 130 645 _c
173 709 236 742 318 742 _c
_cl}_d
/one{636 0 110 0 544 729 _sc
124 83 _m
285 83 _l
285 639 _l
110 604 _l
110 694 _l
284 729 _l
383 729 _l
383 83 _l
544 83 _l
544 0 _l
124 0 _l
124 83 _l
_cl}_d
/two{{636 0 73 0 536 742 _sc
192 83 _m
536 83 _l
536 0 _l
73 0 _l
73 83 _l
110 121 161 173 226 239 _c
290 304 331 346 348 365 _c
380 400 402 430 414 455 _c
426 479 433 504 433 528 _c
433 566 419 598 392 622 _c
365 646 330 659 286 659 _c
255 659 222 653 188 643 _c
154 632 117 616 78 594 _c
78 694 _l
118 710 155 722 189 730 _c
223 738 255 742 284 742 _c
}_e{359 742 419 723 464 685 _c
509 647 532 597 532 534 _c
532 504 526 475 515 449 _c
504 422 484 390 454 354 _c
446 344 420 317 376 272 _c
332 227 271 164 192 83 _c
_cl}_e}_d
/A{684 0 8 0 676 729 _sc
342 632 _m
208 269 _l
476 269 _l
342 632 _l
286 729 _m
398 729 _l
676 0 _l
573 0 _l
507 187 _l
178 187 _l
112 0 _l
8 0 _l
286 729 _l
_cl}_d
/I{295 0 98 0 197 729 _sc
98 729 _m
197 729 _l
197 0 _l
98 0 _l
98 729 _l
_cl}_d
/N{748 0 98 0 650 729 _sc
98 729 _m
231 729 _l
554 119 _l
554 729 _l
650 729 _l
650 0 _l
517 0 _l
194 610 _l
194 0 _l
98 0 _l
98 729 _l
_cl}_d
/Q{{787 0 56 -128 731 742 _sc
394 662 _m
322 662 265 635 223 582 _c
181 528 160 456 160 364 _c
160 272 181 199 223 146 _c
265 92 322 66 394 66 _c
465 66 522 92 564 146 _c
606 199 627 272 627 364 _c
627 456 606 528 564 582 _c
522 635 465 662 394 662 _c
532 13 _m
662 -128 _l
543 -128 _l
435 -11 _l
424 -11 416 -12 410 -12 _c
404 -12 399 -13 394 -13 _c
291 -13 209 21 148 89 _c
}_e{86 157 56 248 56 364 _c
56 479 86 571 148 639 _c
209 707 291 742 394 742 _c
496 742 577 707 639 639 _c
700 571 731 479 731 364 _c
731 279 714 206 680 146 _c
646 86 596 41 532 13 _c
_cl}_e}_d
/S{{635 0 66 -13 579 742 _sc
535 705 _m
535 609 _l
497 627 462 640 429 649 _c
395 657 363 662 333 662 _c
279 662 237 651 208 631 _c
179 610 165 580 165 542 _c
165 510 174 485 194 469 _c
213 452 250 439 304 429 _c
364 417 _l
437 403 491 378 526 343 _c
561 307 579 260 579 201 _c
579 130 555 77 508 41 _c
460 5 391 -13 300 -13 _c
265 -13 228 -9 189 -2 _c
}_e{150 5 110 16 69 32 _c
69 134 _l
109 111 148 94 186 83 _c
224 71 262 66 300 66 _c
356 66 399 77 430 99 _c
460 121 476 152 476 194 _c
476 230 465 258 443 278 _c
421 298 385 313 335 323 _c
275 335 _l
201 349 148 372 115 404 _c
82 435 66 478 66 534 _c
66 598 88 649 134 686 _c
179 723 242 742 322 742 _c
356 742 390 739 426 733 _c
461 727 497 717 535 705 _c
}_e{_cl}_e}_d
/U{732 0 87 -13 645 729 _sc
87 729 _m
186 729 _l
186 286 _l
186 208 200 151 228 117 _c
256 83 302 66 366 66 _c
429 66 475 83 503 117 _c
531 151 546 208 546 286 _c
546 729 _l
645 729 _l
645 274 _l
645 178 621 107 574 59 _c
527 11 458 -13 366 -13 _c
274 -13 204 11 157 59 _c
110 107 87 178 87 274 _c
87 729 _l
_cl}_d
/a{{613 0 60 -13 522 560 _sc
343 275 _m
270 275 220 266 192 250 _c
164 233 150 205 150 165 _c
150 133 160 107 181 89 _c
202 70 231 61 267 61 _c
317 61 357 78 387 114 _c
417 149 432 196 432 255 _c
432 275 _l
343 275 _l
522 312 _m
522 0 _l
432 0 _l
432 83 _l
411 49 385 25 355 10 _c
325 -5 287 -13 243 -13 _c
187 -13 142 2 109 33 _c
76 64 60 106 60 159 _c
}_e{60 220 80 266 122 298 _c
163 329 224 345 306 345 _c
432 345 _l
432 354 _l
432 395 418 427 391 450 _c
364 472 326 484 277 484 _c
245 484 215 480 185 472 _c
155 464 127 453 100 439 _c
100 522 _l
132 534 164 544 195 550 _c
226 556 256 560 286 560 _c
365 560 424 539 463 498 _c
502 457 522 395 522 312 _c
_cl}_e}_d
/e{{615 0 55 -13 562 560 _sc
562 296 _m
562 252 _l
149 252 _l
153 190 171 142 205 110 _c
238 78 284 62 344 62 _c
378 62 412 66 444 74 _c
476 82 509 95 541 113 _c
541 28 _l
509 14 476 3 442 -3 _c
408 -9 373 -13 339 -13 _c
251 -13 182 12 131 62 _c
80 112 55 181 55 268 _c
55 357 79 428 127 481 _c
175 533 241 560 323 560 _c
397 560 455 536 498 489 _c
}_e{540 441 562 377 562 296 _c
472 322 _m
471 371 457 410 431 440 _c
404 469 368 484 324 484 _c
274 484 234 469 204 441 _c
174 413 156 373 152 322 _c
472 322 _l
_cl}_e}_d
/i{278 0 94 0 184 760 _sc
94 547 _m
184 547 _l
184 0 _l
94 0 _l
94 547 _l
94 760 _m
184 760 _l
184 646 _l
94 646 _l
94 760 _l
_cl}_d
/m{{974 0 91 0 889 560 _sc
520 442 _m
542 482 569 511 600 531 _c
631 550 668 560 711 560 _c
767 560 811 540 842 500 _c
873 460 889 403 889 330 _c
889 0 _l
799 0 _l
799 327 _l
799 379 789 418 771 444 _c
752 469 724 482 686 482 _c
639 482 602 466 575 435 _c
548 404 535 362 535 309 _c
535 0 _l
445 0 _l
445 327 _l
445 379 435 418 417 444 _c
398 469 369 482 331 482 _c
}_e{285 482 248 466 221 435 _c
194 404 181 362 181 309 _c
181 0 _l
91 0 _l
91 547 _l
181 547 _l
181 462 _l
201 495 226 520 255 536 _c
283 552 317 560 357 560 _c
397 560 430 550 458 530 _c
486 510 506 480 520 442 _c
_cl}_e}_d
/n{634 0 91 0 549 560 _sc
549 330 _m
549 0 _l
459 0 _l
459 327 _l
459 379 448 417 428 443 _c
408 469 378 482 338 482 _c
289 482 251 466 223 435 _c
195 404 181 362 181 309 _c
181 0 _l
91 0 _l
91 547 _l
181 547 _l
181 462 _l
202 494 227 519 257 535 _c
286 551 320 560 358 560 _c
420 560 468 540 500 501 _c
532 462 549 405 549 330 _c
_cl}_d
/o{612 0 55 -13 557 560 _sc
306 484 _m
258 484 220 465 192 427 _c
164 389 150 338 150 273 _c
150 207 163 156 191 118 _c
219 80 257 62 306 62 _c
354 62 392 80 420 118 _c
448 156 462 207 462 273 _c
462 337 448 389 420 427 _c
392 465 354 484 306 484 _c
306 560 _m
384 560 445 534 490 484 _c
534 433 557 363 557 273 _c
557 183 534 113 490 63 _c
445 12 384 -13 306 -13 _c
227 -13 165 12 121 63 _c
77 113 55 183 55 273 _c
55 363 77 433 121 484 _c
165 534 227 560 306 560 _c
_cl}_d
/r{411 0 91 0 411 560 _sc
411 463 _m
401 469 390 473 378 476 _c
366 478 353 480 339 480 _c
288 480 249 463 222 430 _c
194 397 181 350 181 288 _c
181 0 _l
91 0 _l
91 547 _l
181 547 _l
181 462 _l
199 495 224 520 254 536 _c
284 552 321 560 365 560 _c
371 560 378 559 386 559 _c
393 558 401 557 411 555 _c
411 463 _l
_cl}_d
/s{{521 0 54 -13 472 560 _sc
443 531 _m
443 446 _l
417 458 391 468 364 475 _c
336 481 308 485 279 485 _c
234 485 200 478 178 464 _c
156 450 145 430 145 403 _c
145 382 153 366 169 354 _c
185 342 217 330 265 320 _c
296 313 _l
360 299 405 279 432 255 _c
458 230 472 195 472 151 _c
472 100 452 60 412 31 _c
372 1 316 -13 246 -13 _c
216 -13 186 -10 154 -5 _c
}_e{122 0 89 8 54 20 _c
54 113 _l
87 95 120 82 152 74 _c
184 65 216 61 248 61 _c
290 61 323 68 346 82 _c
368 96 380 117 380 144 _c
380 168 371 187 355 200 _c
339 213 303 226 247 238 _c
216 245 _l
160 257 119 275 95 299 _c
70 323 58 356 58 399 _c
58 450 76 490 112 518 _c
148 546 200 560 268 560 _c
301 560 332 557 362 552 _c
391 547 418 540 443 531 _c
}_e{_cl}_e}_d
/t{392 0 27 0 368 702 _sc
183 702 _m
183 547 _l
368 547 _l
368 477 _l
183 477 _l
183 180 _l
183 135 189 106 201 94 _c
213 81 238 75 276 75 _c
368 75 _l
368 0 _l
276 0 _l
206 0 158 13 132 39 _c
106 65 93 112 93 180 _c
93 477 _l
27 477 _l
27 547 _l
93 547 _l
93 702 _l
183 702 _l
_cl}_d
/y{592 0 30 -207 562 547 _sc
322 -50 _m
296 -114 271 -157 247 -177 _c
223 -197 191 -207 151 -207 _c
79 -207 _l
79 -132 _l
132 -132 _l
156 -132 175 -126 189 -114 _c
203 -102 218 -75 235 -31 _c
251 9 _l
30 547 _l
125 547 _l
296 119 _l
467 547 _l
562 547 _l
322 -50 _l
_cl}_d
end readonly def

/BuildGlyph
 {exch begin
 CharStrings exch
 2 copy known not{pop /.notdef}if
 true 3 1 roll get exec
 end}_d

/BuildChar {
 1 index /Encoding get exch get
 1 index /BuildGlyph get exec
}_d

FontName currentdict end definefont pop
end
%%EndProlog
mpldict begin
18 180 translate
576 432 0 0 clipbox
gsave
0 0 m
576 0 l
576 432 l
0 432 l
cl
1.000 setgray
fill
grestore
gsave
72 43.2 m
518.4 43.2 l
518.4 388.8 l
72 388.8 l
cl
1.000 setgray
fill
grestore
/p0_0 {
newpath
translate
72 356.347 m
72 359.227 l
} bind def
/p0_1 {
newpath
translate
76.6069 356.069 m
76.6069 358.653 l
} bind def
/p0_2 {
newpath
translate
81.0723 356.134 m
81.0723 358.633 l
} bind def
/p0_3 {
newpath
translate
85.5607 357.78 m
85.5607 360.269 l
} bind def
/p0_4 {
newpath
translate
90.1545 358.687 m
90.1545 360.951 l
} bind def
/p0_5 {
newpath
translate
94.7257 357.396 m
94.7257 359.859 l
} bind def
/p0_6 {
newpath
translate
99.2865 358.443 m
99.2865 360.607 l
} bind def
/p0_7 {
newpath
translate
103.897 357.494 m
103.897 359.503 l
} bind def
/p0_8 {
newpath
translate
108.451 359.753 m
108.451 361.902 l
} bind def
/p0_9 {
newpath
translate
113.045 357.055 m
113.045 358.885 l
} bind def
/p0_a {
newpath
translate
117.612 357.731 m
117.612 359.761 l
} bind def
/p0_b {
newpath
translate
122.093 358.227 m
122.093 360.046 l
} bind def
/p0_c {
newpath
translate
126.665 358.808 m
126.665 360.561 l
} bind def
/p0_d {
newpath
translate
131.197 356.416 m
131.197 358.274 l
} bind def
/p0_e {
newpath
translate
135.744 358.847 m
135.744 360.493 l
} bind def
/p0_f {
newpath
translate
140.367 358.397 m
140.367 360.061 l
} bind def
/p0_10 {
newpath
translate
144.911 355.436 m
144.911 357.185 l
} bind def
/p0_11 {
newpath
translate
149.416 357.373 m
149.416 359.116 l
} bind def
/p0_12 {
newpath
translate
153.924 357.684 m
153.924 359.306 l
} bind def
/p0_13 {
newpath
translate
158.495 356.86 m
158.495 358.453 l
} bind def
/p0_14 {
newpath
translate
163.105 356.597 m
163.105 358.132 l
} bind def
/p0_15 {
newpath
translate
167.706 355.36 m
167.706 356.864 l
} bind def
/p0_16 {
newpath
translate
172.225 356.334 m
172.225 357.75 l
} bind def
/p0_17 {
newpath
translate
176.772 356.113 m
176.772 357.452 l
} bind def
/p0_18 {
newpath
translate
181.35 356.74 m
181.35 358.032 l
} bind def
/p0_19 {
newpath
translate
185.932 356.62 m
185.932 357.884 l
} bind def
/p0_1a {
newpath
translate
190.513 355.997 m
190.513 357.192 l
} bind def
/p0_1b {
newpath
translate
195.034 353.984 m
195.034 355.186 l
} bind def
/p0_1c {
newpath
translate
199.576 354.756 m
199.576 355.846 l
} bind def
/p0_1d {
newpath
translate
204.145 355.167 m
204.145 356.219 l
} bind def
/p0_1e {
newpath
translate
208.704 355.699 m
208.704 356.694 l
} bind def
/p0_1f {
newpath
translate
213.268 355.334 m
213.268 356.328 l
} bind def
/p0_20 {
newpath
translate
217.827 354.159 m
217.827 355.155 l
} bind def
/p0_21 {
newpath
translate
222.372 355.12 m
222.372 356.056 l
} bind def
/p0_22 {
newpath
translate
226.907 354.771 m
226.907 355.66 l
} bind def
/p0_23 {
newpath
translate
231.483 354.451 m
231.483 355.318 l
} bind def
/p0_24 {
newpath
translate
236.071 354.845 m
236.071 355.709 l
} bind def
/p0_25 {
newpath
translate
240.634 354.898 m
240.634 355.744 l
} bind def
/p0_26 {
newpath
translate
245.19 354.438 m
245.19 355.252 l
} bind def
/p0_27 {
newpath
translate
249.757 354.282 m
249.757 355.094 l
} bind def
/p0_28 {
newpath
translate
254.318 353.432 m
254.318 354.226 l
} bind def
/p0_29 {
newpath
translate
258.872 353.968 m
258.872 354.716 l
} bind def
/p0_2a {
newpath
translate
263.436 353.735 m
263.436 354.493 l
} bind def
/p0_2b {
newpath
translate
267.997 353.597 m
267.997 354.326 l
} bind def
/p0_2c {
newpath
translate
272.556 352.561 m
272.556 353.264 l
} bind def
/p0_2d {
newpath
translate
277.115 351.685 m
277.115 352.357 l
} bind def
/p0_2e {
newpath
translate
281.68 351.953 m
281.68 352.619 l
} bind def
/p0_2f {
newpath
translate
286.228 351.366 m
286.228 352.022 l
} bind def
/p0_30 {
newpath
translate
290.789 350.893 m
290.789 351.523 l
} bind def
/p0_31 {
newpath
translate
295.359 349.062 m
295.359 349.695 l
} bind def
/p0_32 {
newpath
translate
299.915 347.603 m
299.915 348.231 l
} bind def
/p0_33 {
newpath
translate
304.476 347.162 m
304.476 347.782 l
} bind def
/p0_34 {
newpath
translate
309.028 345.23 m
309.028 345.804 l
} bind def
/p0_35 {
newpath
translate
313.578 342.926 m
313.578 343.498 l
} bind def
/p0_36 {
newpath
translate
318.141 342.139 m
318.141 342.694 l
} bind def
/p0_37 {
newpath
translate
322.708 340.004 m
322.708 340.553 l
} bind def
/p0_38 {
newpath
translate
327.266 337.932 m
327.266 338.468 l
} bind def
/p0_39 {
newpath
translate
331.824 335.275 m
331.824 335.798 l
} bind def
/p0_3a {
newpath
translate
336.384 332.065 m
336.384 332.599 l
} bind def
/p0_3b {
newpath
translate
340.94 329.091 m
340.94 329.61 l
} bind def
/p0_3c {
newpath
translate
345.504 325.862 m
345.504 326.378 l
} bind def
/p0_3d {
newpath
translate
350.063 322.562 m
350.063 323.07 l
} bind def
/p0_3e {
newpath
translate
354.622 320.137 m
354.622 320.648 l
} bind def
/p0_3f {
newpath
translate
359.187 316.591 m
359.187 317.091 l
} bind def
/p0_40 {
newpath
translate
363.741 312.318 m
363.741 312.823 l
} bind def
/p0_41 {
newpath
translate
368.294 306.918 m
368.294 307.428 l
} bind def
/p0_42 {
newpath
translate
372.856 302.473 m
372.856 302.971 l
} bind def
/p0_43 {
newpath
translate
377.419 297.67 m
377.419 298.174 l
} bind def
/p0_44 {
newpath
translate
381.98 292.102 m
381.98 292.6 l
} bind def
/p0_45 {
newpath
translate
386.544 286.465 m
386.544 286.975 l
} bind def
/p0_46 {
newpath
translate
391.101 281.328 m
391.101 281.846 l
} bind def
/p0_47 {
newpath
translate
395.661 275.359 m
395.661 275.892 l
} bind def
/p0_48 {
newpath
translate
400.226 268.768 m
400.226 269.318 l
} bind def
/p0_49 {
newpath
translate
404.779 262.861 m
404.779 263.42 l
} bind def
/p0_4a {
newpath
translate
409.335 256.543 m
409.335 257.107 l
} bind def
/p0_4b {
newpath
translate
413.894 250.078 m
413.894 250.659 l
} bind def
/p0_4c {
newpath
translate
418.456 242.214 m
418.456 242.824 l
} bind def
/p0_4d {
newpath
translate
423.019 235.708 m
423.019 236.325 l
} bind def
/p0_4e {
newpath
translate
427.579 228.191 m
427.579 228.837 l
} bind def
/p0_4f {
newpath
translate
432.135 221.333 m
432.135 222.005 l
} bind def
/p0_50 {
newpath
translate
436.695 213.378 m
436.695 214.078 l
} bind def
/p0_51 {
newpath
translate
441.253 207.19 m
441.253 207.92 l
} bind def
/p0_52 {
newpath
translate
445.814 198.492 m
445.814 199.256 l
} bind def
/p0_53 {
newpath
translate
450.375 191.866 m
450.375 192.646 l
} bind def
/p0_54 {
newpath
translate
454.94 185.191 m
454.94 186.005 l
} bind def
/p0_55 {
newpath
translate
459.496 177.602 m
459.496 178.456 l
} bind def
/p0_56 {
newpath
translate
464.052 170.006 m
464.052 170.901 l
} bind def
/p0_57 {
newpath
translate
468.608 163.052 m
468.608 163.967 l
} bind def
/p0_58 {
newpath
translate
473.178 155.772 m
473.178 156.723 l
} bind def
/p0_59 {
newpath
translate
477.732 148.765 m
477.732 149.754 l
} bind def
/p0_5a {
newpath
translate
482.301 142.581 m
482.301 143.598 l
} bind def
/p0_5b {
newpath
translate
486.856 135.282 m
486.856 136.33 l
} bind def
/p0_5c {
newpath
translate
491.414 129.272 m
491.414 130.352 l
} bind def
/p0_5d {
newpath
translate
495.967 121.706 m
495.967 122.851 l
} bind def
/p0_5e {
newpath
translate
500.533 116.803 m
500.533 117.971 l
} bind def
/p0_5f {
newpath
translate
505.072 108.032 m
505.072 109.288 l
} bind def
/p0_60 {
newpath
translate
509.626 102.737 m
509.626 104.071 l
} bind def
/p0_61 {
newpath
translate
514.132 97.5003 m
514.132 98.9571 l
} bind def
/p0_62 {
newpath
translate
518.4 90.2244 m
518.4 92.1821 l
} bind def
1.000 setlinewidth
1 setlinejoin
0 setlinecap
[] 0 setdash
0.000 0.000 1.000 setrgbcolor
gsave
446.4 345.6 72 43.2 clipbox
0 0 p0_0
stroke
grestore
gsave
446.4 345.6 72 43.2 clipbox
0 0 p0_1
stroke
grestore
gsave
446.4 345.6 72 43.2 clipbox
0 0 p0_2
stroke
grestore
gsave
446.4 345.6 72 43.2 clipbox
0 0 p0_3
stroke
grestore
gsave
446.4 345.6 72 43.2 clipbox
0 0 p0_4
stroke
grestore
gsave
446.4 345.6 72 43.2 clipbox
0 0 p0_5
stroke
grestore
gsave
446.4 345.6 72 43.2 clipbox
0 0 p0_6
stroke
grestore
gsave
446.4 345.6 72 43.2 clipbox
0 0 p0_7
stroke
grestore
gsave
446.4 345.6 72 43.2 clipbox
0 0 p0_8
stroke
grestore
gsave
446.4 345.6 72 43.2 clipbox
0 0 p0_9
stroke
grestore
gsave
446.4 345.6 72 43.2 clipbox
0 0 p0_a
stroke
grestore
gsave
446.4 345.6 72 43.2 clipbox
0 0 p0_b
stroke
grestore
gsave
446.4 345.6 72 43.2 clipbox
0 0 p0_c
stroke
grestore
gsave
446.4 345.6 72 43.2 clipbox
0 0 p0_d
stroke
grestore
gsave
446.4 345.6 72 43.2 clipbox
0 0 p0_e
stroke
grestore
gsave
446.4 345.6 72 43.2 clipbox
0 0 p0_f
stroke
grestore
gsave
446.4 345.6 72 43.2 clipbox
0 0 p0_10
stroke
grestore
gsave
446.4 345.6 72 43.2 clipbox
0 0 p0_11
stroke
grestore
gsave
446.4 345.6 72 43.2 clipbox
0 0 p0_12
stroke
grestore
gsave
446.4 345.6 72 43.2 clipbox
0 0 p0_13
stroke
grestore
gsave
446.4 345.6 72 43.2 clipbox
0 0 p0_14
stroke
grestore
gsave
446.4 345.6 72 43.2 clipbox
0 0 p0_15
stroke
grestore
gsave
446.4 345.6 72 43.2 clipbox
0 0 p0_16
stroke
grestore
gsave
446.4 345.6 72 43.2 clipbox
0 0 p0_17
stroke
grestore
gsave
446.4 345.6 72 43.2 clipbox
0 0 p0_18
stroke
grestore
gsave
446.4 345.6 72 43.2 clipbox
0 0 p0_19
stroke
grestore
gsave
446.4 345.6 72 43.2 clipbox
0 0 p0_1a
stroke
grestore
gsave
446.4 345.6 72 43.2 clipbox
0 0 p0_1b
stroke
grestore
gsave
446.4 345.6 72 43.2 clipbox
0 0 p0_1c
stroke
grestore
gsave
446.4 345.6 72 43.2 clipbox
0 0 p0_1d
stroke
grestore
gsave
446.4 345.6 72 43.2 clipbox
0 0 p0_1e
stroke
grestore
gsave
446.4 345.6 72 43.2 clipbox
0 0 p0_1f
stroke
grestore
gsave
446.4 345.6 72 43.2 clipbox
0 0 p0_20
stroke
grestore
gsave
446.4 345.6 72 43.2 clipbox
0 0 p0_21
stroke
grestore
gsave
446.4 345.6 72 43.2 clipbox
0 0 p0_22
stroke
grestore
gsave
446.4 345.6 72 43.2 clipbox
0 0 p0_23
stroke
grestore
gsave
446.4 345.6 72 43.2 clipbox
0 0 p0_24
stroke
grestore
gsave
446.4 345.6 72 43.2 clipbox
0 0 p0_25
stroke
grestore
gsave
446.4 345.6 72 43.2 clipbox
0 0 p0_26
stroke
grestore
gsave
446.4 345.6 72 43.2 clipbox
0 0 p0_27
stroke
grestore
gsave
446.4 345.6 72 43.2 clipbox
0 0 p0_28
stroke
grestore
gsave
446.4 345.6 72 43.2 clipbox
0 0 p0_29
stroke
grestore
gsave
446.4 345.6 72 43.2 clipbox
0 0 p0_2a
stroke
grestore
gsave
446.4 345.6 72 43.2 clipbox
0 0 p0_2b
stroke
grestore
gsave
446.4 345.6 72 43.2 clipbox
0 0 p0_2c
stroke
grestore
gsave
446.4 345.6 72 43.2 clipbox
0 0 p0_2d
stroke
grestore
gsave
446.4 345.6 72 43.2 clipbox
0 0 p0_2e
stroke
grestore
gsave
446.4 345.6 72 43.2 clipbox
0 0 p0_2f
stroke
grestore
gsave
446.4 345.6 72 43.2 clipbox
0 0 p0_30
stroke
grestore
gsave
446.4 345.6 72 43.2 clipbox
0 0 p0_31
stroke
grestore
gsave
446.4 345.6 72 43.2 clipbox
0 0 p0_32
stroke
grestore
gsave
446.4 345.6 72 43.2 clipbox
0 0 p0_33
stroke
grestore
gsave
446.4 345.6 72 43.2 clipbox
0 0 p0_34
stroke
grestore
gsave
446.4 345.6 72 43.2 clipbox
0 0 p0_35
stroke
grestore
gsave
446.4 345.6 72 43.2 clipbox
0 0 p0_36
stroke
grestore
gsave
446.4 345.6 72 43.2 clipbox
0 0 p0_37
stroke
grestore
gsave
446.4 345.6 72 43.2 clipbox
0 0 p0_38
stroke
grestore
gsave
446.4 345.6 72 43.2 clipbox
0 0 p0_39
stroke
grestore
gsave
446.4 345.6 72 43.2 clipbox
0 0 p0_3a
stroke
grestore
gsave
446.4 345.6 72 43.2 clipbox
0 0 p0_3b
stroke
grestore
gsave
446.4 345.6 72 43.2 clipbox
0 0 p0_3c
stroke
grestore
gsave
446.4 345.6 72 43.2 clipbox
0 0 p0_3d
stroke
grestore
gsave
446.4 345.6 72 43.2 clipbox
0 0 p0_3e
stroke
grestore
gsave
446.4 345.6 72 43.2 clipbox
0 0 p0_3f
stroke
grestore
gsave
446.4 345.6 72 43.2 clipbox
0 0 p0_40
stroke
grestore
gsave
446.4 345.6 72 43.2 clipbox
0 0 p0_41
stroke
grestore
gsave
446.4 345.6 72 43.2 clipbox
0 0 p0_42
stroke
grestore
gsave
446.4 345.6 72 43.2 clipbox
0 0 p0_43
stroke
grestore
gsave
446.4 345.6 72 43.2 clipbox
0 0 p0_44
stroke
grestore
gsave
446.4 345.6 72 43.2 clipbox
0 0 p0_45
stroke
grestore
gsave
446.4 345.6 72 43.2 clipbox
0 0 p0_46
stroke
grestore
gsave
446.4 345.6 72 43.2 clipbox
0 0 p0_47
stroke
grestore
gsave
446.4 345.6 72 43.2 clipbox
0 0 p0_48
stroke
grestore
gsave
446.4 345.6 72 43.2 clipbox
0 0 p0_49
stroke
grestore
gsave
446.4 345.6 72 43.2 clipbox
0 0 p0_4a
stroke
grestore
gsave
446.4 345.6 72 43.2 clipbox
0 0 p0_4b
stroke
grestore
gsave
446.4 345.6 72 43.2 clipbox
0 0 p0_4c
stroke
grestore
gsave
446.4 345.6 72 43.2 clipbox
0 0 p0_4d
stroke
grestore
gsave
446.4 345.6 72 43.2 clipbox
0 0 p0_4e
stroke
grestore
gsave
446.4 345.6 72 43.2 clipbox
0 0 p0_4f
stroke
grestore
gsave
446.4 345.6 72 43.2 clipbox
0 0 p0_50
stroke
grestore
gsave
446.4 345.6 72 43.2 clipbox
0 0 p0_51
stroke
grestore
gsave
446.4 345.6 72 43.2 clipbox
0 0 p0_52
stroke
grestore
gsave
446.4 345.6 72 43.2 clipbox
0 0 p0_53
stroke
grestore
gsave
446.4 345.6 72 43.2 clipbox
0 0 p0_54
stroke
grestore
gsave
446.4 345.6 72 43.2 clipbox
0 0 p0_55
stroke
grestore
gsave
446.4 345.6 72 43.2 clipbox
0 0 p0_56
stroke
grestore
gsave
446.4 345.6 72 43.2 clipbox
0 0 p0_57
stroke
grestore
gsave
446.4 345.6 72 43.2 clipbox
0 0 p0_58
stroke
grestore
gsave
446.4 345.6 72 43.2 clipbox
0 0 p0_59
stroke
grestore
gsave
446.4 345.6 72 43.2 clipbox
0 0 p0_5a
stroke
grestore
gsave
446.4 345.6 72 43.2 clipbox
0 0 p0_5b
stroke
grestore
gsave
446.4 345.6 72 43.2 clipbox
0 0 p0_5c
stroke
grestore
gsave
446.4 345.6 72 43.2 clipbox
0 0 p0_5d
stroke
grestore
gsave
446.4 345.6 72 43.2 clipbox
0 0 p0_5e
stroke
grestore
gsave
446.4 345.6 72 43.2 clipbox
0 0 p0_5f
stroke
grestore
gsave
446.4 345.6 72 43.2 clipbox
0 0 p0_60
stroke
grestore
gsave
446.4 345.6 72 43.2 clipbox
0 0 p0_61
stroke
grestore
gsave
446.4 345.6 72 43.2 clipbox
0 0 p0_62
stroke
grestore
0.500 setlinewidth
gsave
446.4 345.6 72 43.2 clipbox
/o {
gsave
newpath
translate
0.5 setlinewidth
1 setlinejoin
0 setlinecap
3 -1.83697e-16 m
-3 1.83697e-16 l
gsave
0.000 0.000 1.000 setrgbcolor
fill
grestore
stroke
grestore
} bind def
72 356.347 o
76.6069 356.069 o
81.0723 356.134 o
85.5607 357.78 o
90.1545 358.687 o
94.7257 357.396 o
99.2865 358.443 o
103.897 357.494 o
108.451 359.753 o
113.045 357.055 o
117.612 357.731 o
122.093 358.227 o
126.665 358.808 o
131.197 356.416 o
135.744 358.847 o
140.367 358.397 o
144.911 355.436 o
149.416 357.373 o
153.924 357.684 o
158.495 356.86 o
163.105 356.597 o
167.706 355.36 o
172.225 356.334 o
176.772 356.113 o
181.35 356.74 o
185.932 356.62 o
190.513 355.997 o
195.034 353.984 o
199.576 354.756 o
204.145 355.167 o
208.704 355.699 o
213.268 355.334 o
217.827 354.159 o
222.372 355.12 o
226.907 354.771 o
231.483 354.451 o
236.071 354.845 o
240.634 354.898 o
245.19 354.438 o
249.757 354.282 o
254.318 353.432 o
258.872 353.968 o
263.436 353.735 o
267.997 353.597 o
272.556 352.561 o
277.115 351.685 o
281.68 351.953 o
286.228 351.366 o
290.789 350.893 o
295.359 349.062 o
299.915 347.603 o
304.476 347.162 o
309.028 345.23 o
313.578 342.926 o
318.141 342.139 o
322.708 340.004 o
327.266 337.932 o
331.824 335.275 o
336.384 332.065 o
340.94 329.091 o
345.504 325.862 o
350.063 322.562 o
354.622 320.137 o
359.187 316.591 o
363.741 312.318 o
368.294 306.918 o
372.856 302.473 o
377.419 297.67 o
381.98 292.102 o
386.544 286.465 o
391.101 281.328 o
395.661 275.359 o
400.226 268.768 o
404.779 262.861 o
409.335 256.543 o
413.894 250.078 o
418.456 242.214 o
423.019 235.708 o
427.579 228.191 o
432.135 221.333 o
436.695 213.378 o
441.253 207.19 o
445.814 198.492 o
450.375 191.866 o
454.94 185.191 o
459.496 177.602 o
464.052 170.006 o
468.608 163.052 o
473.178 155.772 o
477.732 148.765 o
482.301 142.581 o
486.856 135.282 o
491.414 129.272 o
495.967 121.706 o
500.533 116.803 o
505.072 108.032 o
509.626 102.737 o
514.132 97.5003 o
518.4 90.2244 o
grestore
gsave
446.4 345.6 72 43.2 clipbox
/o {
gsave
newpath
translate
0.5 setlinewidth
1 setlinejoin
0 setlinecap
3 -1.83697e-16 m
-3 1.83697e-16 l
gsave
0.000 0.000 1.000 setrgbcolor
fill
grestore
stroke
grestore
} bind def
72 359.227 o
76.6069 358.653 o
81.0723 358.633 o
85.5607 360.269 o
90.1545 360.951 o
94.7257 359.859 o
99.2865 360.607 o
103.897 359.503 o
108.451 361.902 o
113.045 358.885 o
117.612 359.761 o
122.093 360.046 o
126.665 360.561 o
131.197 358.274 o
135.744 360.493 o
140.367 360.061 o
144.911 357.185 o
149.416 359.116 o
153.924 359.306 o
158.495 358.453 o
163.105 358.132 o
167.706 356.864 o
172.225 357.75 o
176.772 357.452 o
181.35 358.032 o
185.932 357.884 o
190.513 357.192 o
195.034 355.186 o
199.576 355.846 o
204.145 356.219 o
208.704 356.694 o
213.268 356.328 o
217.827 355.155 o
222.372 356.056 o
226.907 355.66 o
231.483 355.318 o
236.071 355.709 o
240.634 355.744 o
245.19 355.252 o
249.757 355.094 o
254.318 354.226 o
258.872 354.716 o
263.436 354.493 o
267.997 354.326 o
272.556 353.264 o
277.115 352.357 o
281.68 352.619 o
286.228 352.022 o
290.789 351.523 o
295.359 349.695 o
299.915 348.231 o
304.476 347.782 o
309.028 345.804 o
313.578 343.498 o
318.141 342.694 o
322.708 340.553 o
327.266 338.468 o
331.824 335.798 o
336.384 332.599 o
340.94 329.61 o
345.504 326.378 o
350.063 323.07 o
354.622 320.648 o
359.187 317.091 o
363.741 312.823 o
368.294 307.428 o
372.856 302.971 o
377.419 298.174 o
381.98 292.6 o
386.544 286.975 o
391.101 281.846 o
395.661 275.892 o
400.226 269.318 o
404.779 263.42 o
409.335 257.107 o
413.894 250.659 o
418.456 242.824 o
423.019 236.325 o
427.579 228.837 o
432.135 222.005 o
436.695 214.078 o
441.253 207.92 o
445.814 199.256 o
450.375 192.646 o
454.94 186.005 o
459.496 178.456 o
464.052 170.901 o
468.608 163.967 o
473.178 156.723 o
477.732 149.754 o
482.301 143.598 o
486.856 136.33 o
491.414 130.352 o
495.967 122.851 o
500.533 117.971 o
505.072 109.288 o
509.626 104.071 o
514.132 98.9571 o
518.4 92.1821 o
grestore
1.000 setlinewidth
2 setlinecap
gsave
446.4 345.6 72 43.2 clipbox
72 357.802 m
76.6069 357.374 l
81.0723 357.395 l
85.5607 359.036 l
90.1545 359.828 l
94.7257 358.638 l
99.2865 359.534 l
103.897 358.506 l
108.451 360.836 l
113.045 357.976 l
117.612 358.753 l
122.093 359.143 l
126.665 359.69 l
131.197 357.351 l
135.744 359.675 l
140.367 359.234 l
144.911 356.316 l
149.416 358.25 l
153.924 358.5 l
158.495 357.661 l
163.105 357.369 l
167.706 356.117 l
172.225 357.046 l
176.772 356.786 l
181.35 357.389 l
185.932 357.255 l
190.513 356.597 l
195.034 354.588 l
199.576 355.303 l
204.145 355.695 l
208.704 356.198 l
213.268 355.833 l
217.827 354.659 l
222.372 355.59 l
226.907 355.217 l
231.483 354.886 l
236.071 355.279 l
240.634 355.322 l
245.19 354.846 l
249.757 354.689 l
254.318 353.83 l
258.872 354.343 l
263.436 354.115 l
267.997 353.962 l
272.556 352.913 l
277.115 352.022 l
281.68 352.287 l
286.228 351.695 l
290.789 351.209 l
295.359 349.379 l
299.915 347.917 l
304.476 347.473 l
309.028 345.518 l
313.578 343.213 l
318.141 342.417 l
322.708 340.279 l
327.266 338.201 l
331.824 335.537 l
336.384 332.333 l
340.94 329.351 l
345.504 326.121 l
350.063 322.816 l
354.622 320.393 l
359.187 316.841 l
363.741 312.571 l
368.294 307.174 l
372.856 302.722 l
377.419 297.923 l
381.98 292.351 l
386.544 286.72 l
391.101 281.588 l
395.661 275.626 l
400.226 269.044 l
404.779 263.141 l
409.335 256.826 l
413.894 250.369 l
418.456 242.52 l
423.019 236.017 l
427.579 228.514 l
432.135 221.669 l
436.695 213.729 l
441.253 207.556 l
445.814 198.875 l
450.375 192.257 l
454.94 185.599 l
459.496 178.03 l
464.052 170.455 l
468.608 163.511 l
473.178 156.249 l
477.732 149.261 l
482.301 143.091 l
486.856 135.808 l
491.414 129.814 l
495.967 122.281 l
500.533 117.39 l
505.072 108.663 l
509.626 103.407 l
514.132 98.2326 l
518.4 91.2103 l
stroke
grestore
0.500 setlinewidth
0 setlinecap
[1 3] 0 setdash
0.000 setgray
gsave
446.4 345.6 72 43.2 clipbox
296.725 43.2 m
296.725 388.8 l
stroke
grestore
[] 0 setdash
gsave
/o {
gsave
newpath
translate
0.5 setlinewidth
1 setlinejoin
0 setlinecap
0 0 m
0 4 l
gsave
0.000 setgray
fill
grestore
stroke
grestore
} bind def
296.725 43.2 o
grestore
gsave
/o {
gsave
newpath
translate
0.5 setlinewidth
1 setlinejoin
0 setlinecap
0 0 m
0 -4 l
gsave
0.000 setgray
fill
grestore
stroke
grestore
} bind def
296.725 388.8 o
grestore
gsave
284.725477 27.700000 translate
0.000000 rotate
/BitstreamVeraSans-Roman findfont
12.0 scalefont
setfont
0.000000 0.465625 moveto
/one glyphshow

7.634766 0.465625 moveto
/zero glyphshow

/BitstreamVeraSans-Roman findfont
8.4 scalefont
setfont
15.269531 6.765625 moveto
/zero glyphshow


grestore
gsave
/o {
gsave
newpath
translate
0.5 setlinewidth
1 setlinejoin
0 setlinecap
0 0 m
0 2 l
gsave
0.000 setgray
fill
grestore
stroke
grestore
} bind def
123.413 43.2 o
grestore
gsave
/o {
gsave
newpath
translate
0.5 setlinewidth
1 setlinejoin
0 setlinecap
0 0 m
0 -2 l
gsave
0.000 setgray
fill
grestore
stroke
grestore
} bind def
123.413 388.8 o
grestore
gsave
/o {
gsave
newpath
translate
0.5 setlinewidth
1 setlinejoin
0 setlinecap
0 0 m
0 2 l
gsave
0.000 setgray
fill
grestore
stroke
grestore
} bind def
164.825 43.2 o
grestore
gsave
/o {
gsave
newpath
translate
0.5 setlinewidth
1 setlinejoin
0 setlinecap
0 0 m
0 -2 l
gsave
0.000 setgray
fill
grestore
stroke
grestore
} bind def
164.825 388.8 o
grestore
gsave
/o {
gsave
newpath
translate
0.5 setlinewidth
1 setlinejoin
0 setlinecap
0 0 m
0 2 l
gsave
0.000 setgray
fill
grestore
stroke
grestore
} bind def
196.946 43.2 o
grestore
gsave
/o {
gsave
newpath
translate
0.5 setlinewidth
1 setlinejoin
0 setlinecap
0 0 m
0 -2 l
gsave
0.000 setgray
fill
grestore
stroke
grestore
} bind def
196.946 388.8 o
grestore
gsave
/o {
gsave
newpath
translate
0.5 setlinewidth
1 setlinejoin
0 setlinecap
0 0 m
0 2 l
gsave
0.000 setgray
fill
grestore
stroke
grestore
} bind def
223.192 43.2 o
grestore
gsave
/o {
gsave
newpath
translate
0.5 setlinewidth
1 setlinejoin
0 setlinecap
0 0 m
0 -2 l
gsave
0.000 setgray
fill
grestore
stroke
grestore
} bind def
223.192 388.8 o
grestore
gsave
/o {
gsave
newpath
translate
0.5 setlinewidth
1 setlinejoin
0 setlinecap
0 0 m
0 2 l
gsave
0.000 setgray
fill
grestore
stroke
grestore
} bind def
245.382 43.2 o
grestore
gsave
/o {
gsave
newpath
translate
0.5 setlinewidth
1 setlinejoin
0 setlinecap
0 0 m
0 -2 l
gsave
0.000 setgray
fill
grestore
stroke
grestore
} bind def
245.382 388.8 o
grestore
gsave
/o {
gsave
newpath
translate
0.5 setlinewidth
1 setlinejoin
0 setlinecap
0 0 m
0 2 l
gsave
0.000 setgray
fill
grestore
stroke
grestore
} bind def
264.604 43.2 o
grestore
gsave
/o {
gsave
newpath
translate
0.5 setlinewidth
1 setlinejoin
0 setlinecap
0 0 m
0 -2 l
gsave
0.000 setgray
fill
grestore
stroke
grestore
} bind def
264.604 388.8 o
grestore
gsave
/o {
gsave
newpath
translate
0.5 setlinewidth
1 setlinejoin
0 setlinecap
0 0 m
0 2 l
gsave
0.000 setgray
fill
grestore
stroke
grestore
} bind def
281.559 43.2 o
grestore
gsave
/o {
gsave
newpath
translate
0.5 setlinewidth
1 setlinejoin
0 setlinecap
0 0 m
0 -2 l
gsave
0.000 setgray
fill
grestore
stroke
grestore
} bind def
281.559 388.8 o
grestore
gsave
/o {
gsave
newpath
translate
0.5 setlinewidth
1 setlinejoin
0 setlinecap
0 0 m
0 2 l
gsave
0.000 setgray
fill
grestore
stroke
grestore
} bind def
396.505 43.2 o
grestore
gsave
/o {
gsave
newpath
translate
0.5 setlinewidth
1 setlinejoin
0 setlinecap
0 0 m
0 -2 l
gsave
0.000 setgray
fill
grestore
stroke
grestore
} bind def
396.505 388.8 o
grestore
gsave
/o {
gsave
newpath
translate
0.5 setlinewidth
1 setlinejoin
0 setlinecap
0 0 m
0 2 l
gsave
0.000 setgray
fill
grestore
stroke
grestore
} bind def
454.872 43.2 o
grestore
gsave
/o {
gsave
newpath
translate
0.5 setlinewidth
1 setlinejoin
0 setlinecap
0 0 m
0 -2 l
gsave
0.000 setgray
fill
grestore
stroke
grestore
} bind def
454.872 388.8 o
grestore
gsave
/o {
gsave
newpath
translate
0.5 setlinewidth
1 setlinejoin
0 setlinecap
0 0 m
0 2 l
gsave
0.000 setgray
fill
grestore
stroke
grestore
} bind def
496.284 43.2 o
grestore
gsave
/o {
gsave
newpath
translate
0.5 setlinewidth
1 setlinejoin
0 setlinecap
0 0 m
0 -2 l
gsave
0.000 setgray
fill
grestore
stroke
grestore
} bind def
496.284 388.8 o
grestore
/BitstreamVeraSans-Roman findfont
12.000 scalefont
setfont
gsave
268.903125 11.075000 translate
0.000000 rotate
0.000000 0.000000 m /Q glyphshow
9.445312 0.000000 m /space glyphshow
13.259766 0.000000 m /parenleft glyphshow
17.941406 0.000000 m /one glyphshow
25.576172 0.000000 m /slash glyphshow
29.619141 0.000000 m /n glyphshow
37.224609 0.000000 m /m glyphshow
48.914062 0.000000 m /parenright glyphshow
grestore
[1 3] 0 setdash
gsave
446.4 345.6 72 43.2 clipbox
72 90.4007 m
518.4 90.4007 l
stroke
grestore
[] 0 setdash
gsave
/o {
gsave
newpath
translate
0.5 setlinewidth
1 setlinejoin
0 setlinecap
0 0 m
4 0 l
gsave
0.000 setgray
fill
grestore
stroke
grestore
} bind def
72 90.4007 o
grestore
gsave
/o {
gsave
newpath
translate
0.5 setlinewidth
1 setlinejoin
0 setlinecap
0 0 m
-4 0 l
gsave
0.000 setgray
fill
grestore
stroke
grestore
} bind def
518.4 90.4007 o
grestore
gsave
44.000000 85.900682 translate
0.000000 rotate
/BitstreamVeraSans-Roman findfont
12.0 scalefont
setfont
0.000000 0.575000 moveto
/one glyphshow

7.634766 0.575000 moveto
/zero glyphshow

/BitstreamVeraSans-Roman findfont
8.4 scalefont
setfont
15.269531 6.875000 moveto
/one glyphshow


grestore
[1 3] 0 setdash
gsave
446.4 345.6 72 43.2 clipbox
72 247.198 m
518.4 247.198 l
stroke
grestore
[] 0 setdash
gsave
/o {
gsave
newpath
translate
0.5 setlinewidth
1 setlinejoin
0 setlinecap
0 0 m
4 0 l
gsave
0.000 setgray
fill
grestore
stroke
grestore
} bind def
72 247.198 o
grestore
gsave
/o {
gsave
newpath
translate
0.5 setlinewidth
1 setlinejoin
0 setlinecap
0 0 m
-4 0 l
gsave
0.000 setgray
fill
grestore
stroke
grestore
} bind def
518.4 247.198 o
grestore
gsave
44.000000 242.697954 translate
0.000000 rotate
/BitstreamVeraSans-Roman findfont
12.0 scalefont
setfont
0.000000 0.465625 moveto
/one glyphshow

7.634766 0.465625 moveto
/zero glyphshow

/BitstreamVeraSans-Roman findfont
8.4 scalefont
setfont
15.269531 6.765625 moveto
/two glyphshow


grestore
gsave
/o {
gsave
newpath
translate
0.5 setlinewidth
1 setlinejoin
0 setlinecap
0 0 m
2 0 l
gsave
0.000 setgray
fill
grestore
stroke
grestore
} bind def
72 43.2 o
grestore
gsave
/o {
gsave
newpath
translate
0.5 setlinewidth
1 setlinejoin
0 setlinecap
0 0 m
-2 0 l
gsave
0.000 setgray
fill
grestore
stroke
grestore
} bind def
518.4 43.2 o
grestore
gsave
/o {
gsave
newpath
translate
0.5 setlinewidth
1 setlinejoin
0 setlinecap
0 0 m
2 0 l
gsave
0.000 setgray
fill
grestore
stroke
grestore
} bind def
72 55.6154 o
grestore
gsave
/o {
gsave
newpath
translate
0.5 setlinewidth
1 setlinejoin
0 setlinecap
0 0 m
-2 0 l
gsave
0.000 setgray
fill
grestore
stroke
grestore
} bind def
518.4 55.6154 o
grestore
gsave
/o {
gsave
newpath
translate
0.5 setlinewidth
1 setlinejoin
0 setlinecap
0 0 m
2 0 l
gsave
0.000 setgray
fill
grestore
stroke
grestore
} bind def
72 66.1125 o
grestore
gsave
/o {
gsave
newpath
translate
0.5 setlinewidth
1 setlinejoin
0 setlinecap
0 0 m
-2 0 l
gsave
0.000 setgray
fill
grestore
stroke
grestore
} bind def
518.4 66.1125 o
grestore
gsave
/o {
gsave
newpath
translate
0.5 setlinewidth
1 setlinejoin
0 setlinecap
0 0 m
2 0 l
gsave
0.000 setgray
fill
grestore
stroke
grestore
} bind def
72 75.2055 o
grestore
gsave
/o {
gsave
newpath
translate
0.5 setlinewidth
1 setlinejoin
0 setlinecap
0 0 m
-2 0 l
gsave
0.000 setgray
fill
grestore
stroke
grestore
} bind def
518.4 75.2055 o
grestore
gsave
/o {
gsave
newpath
translate
0.5 setlinewidth
1 setlinejoin
0 setlinecap
0 0 m
2 0 l
gsave
0.000 setgray
fill
grestore
stroke
grestore
} bind def
72 83.226 o
grestore
gsave
/o {
gsave
newpath
translate
0.5 setlinewidth
1 setlinejoin
0 setlinecap
0 0 m
-2 0 l
gsave
0.000 setgray
fill
grestore
stroke
grestore
} bind def
518.4 83.226 o
grestore
gsave
/o {
gsave
newpath
translate
0.5 setlinewidth
1 setlinejoin
0 setlinecap
0 0 m
2 0 l
gsave
0.000 setgray
fill
grestore
stroke
grestore
} bind def
72 137.601 o
grestore
gsave
/o {
gsave
newpath
translate
0.5 setlinewidth
1 setlinejoin
0 setlinecap
0 0 m
-2 0 l
gsave
0.000 setgray
fill
grestore
stroke
grestore
} bind def
518.4 137.601 o
grestore
gsave
/o {
gsave
newpath
translate
0.5 setlinewidth
1 setlinejoin
0 setlinecap
0 0 m
2 0 l
gsave
0.000 setgray
fill
grestore
stroke
grestore
} bind def
72 165.212 o
grestore
gsave
/o {
gsave
newpath
translate
0.5 setlinewidth
1 setlinejoin
0 setlinecap
0 0 m
-2 0 l
gsave
0.000 setgray
fill
grestore
stroke
grestore
} bind def
518.4 165.212 o
grestore
gsave
/o {
gsave
newpath
translate
0.5 setlinewidth
1 setlinejoin
0 setlinecap
0 0 m
2 0 l
gsave
0.000 setgray
fill
grestore
stroke
grestore
} bind def
72 184.802 o
grestore
gsave
/o {
gsave
newpath
translate
0.5 setlinewidth
1 setlinejoin
0 setlinecap
0 0 m
-2 0 l
gsave
0.000 setgray
fill
grestore
stroke
grestore
} bind def
518.4 184.802 o
grestore
gsave
/o {
gsave
newpath
translate
0.5 setlinewidth
1 setlinejoin
0 setlinecap
0 0 m
2 0 l
gsave
0.000 setgray
fill
grestore
stroke
grestore
} bind def
72 199.997 o
grestore
gsave
/o {
gsave
newpath
translate
0.5 setlinewidth
1 setlinejoin
0 setlinecap
0 0 m
-2 0 l
gsave
0.000 setgray
fill
grestore
stroke
grestore
} bind def
518.4 199.997 o
grestore
gsave
/o {
gsave
newpath
translate
0.5 setlinewidth
1 setlinejoin
0 setlinecap
0 0 m
2 0 l
gsave
0.000 setgray
fill
grestore
stroke
grestore
} bind def
72 212.413 o
grestore
gsave
/o {
gsave
newpath
translate
0.5 setlinewidth
1 setlinejoin
0 setlinecap
0 0 m
-2 0 l
gsave
0.000 setgray
fill
grestore
stroke
grestore
} bind def
518.4 212.413 o
grestore
gsave
/o {
gsave
newpath
translate
0.5 setlinewidth
1 setlinejoin
0 setlinecap
0 0 m
2 0 l
gsave
0.000 setgray
fill
grestore
stroke
grestore
} bind def
72 222.91 o
grestore
gsave
/o {
gsave
newpath
translate
0.5 setlinewidth
1 setlinejoin
0 setlinecap
0 0 m
-2 0 l
gsave
0.000 setgray
fill
grestore
stroke
grestore
} bind def
518.4 222.91 o
grestore
gsave
/o {
gsave
newpath
translate
0.5 setlinewidth
1 setlinejoin
0 setlinecap
0 0 m
2 0 l
gsave
0.000 setgray
fill
grestore
stroke
grestore
} bind def
72 232.003 o
grestore
gsave
/o {
gsave
newpath
translate
0.5 setlinewidth
1 setlinejoin
0 setlinecap
0 0 m
-2 0 l
gsave
0.000 setgray
fill
grestore
stroke
grestore
} bind def
518.4 232.003 o
grestore
gsave
/o {
gsave
newpath
translate
0.5 setlinewidth
1 setlinejoin
0 setlinecap
0 0 m
2 0 l
gsave
0.000 setgray
fill
grestore
stroke
grestore
} bind def
72 240.023 o
grestore
gsave
/o {
gsave
newpath
translate
0.5 setlinewidth
1 setlinejoin
0 setlinecap
0 0 m
-2 0 l
gsave
0.000 setgray
fill
grestore
stroke
grestore
} bind def
518.4 240.023 o
grestore
gsave
/o {
gsave
newpath
translate
0.5 setlinewidth
1 setlinejoin
0 setlinecap
0 0 m
2 0 l
gsave
0.000 setgray
fill
grestore
stroke
grestore
} bind def
72 294.399 o
grestore
gsave
/o {
gsave
newpath
translate
0.5 setlinewidth
1 setlinejoin
0 setlinecap
0 0 m
-2 0 l
gsave
0.000 setgray
fill
grestore
stroke
grestore
} bind def
518.4 294.399 o
grestore
gsave
/o {
gsave
newpath
translate
0.5 setlinewidth
1 setlinejoin
0 setlinecap
0 0 m
2 0 l
gsave
0.000 setgray
fill
grestore
stroke
grestore
} bind def
72 322.009 o
grestore
gsave
/o {
gsave
newpath
translate
0.5 setlinewidth
1 setlinejoin
0 setlinecap
0 0 m
-2 0 l
gsave
0.000 setgray
fill
grestore
stroke
grestore
} bind def
518.4 322.009 o
grestore
gsave
/o {
gsave
newpath
translate
0.5 setlinewidth
1 setlinejoin
0 setlinecap
0 0 m
2 0 l
gsave
0.000 setgray
fill
grestore
stroke
grestore
} bind def
72 341.599 o
grestore
gsave
/o {
gsave
newpath
translate
0.5 setlinewidth
1 setlinejoin
0 setlinecap
0 0 m
-2 0 l
gsave
0.000 setgray
fill
grestore
stroke
grestore
} bind def
518.4 341.599 o
grestore
gsave
/o {
gsave
newpath
translate
0.5 setlinewidth
1 setlinejoin
0 setlinecap
0 0 m
2 0 l
gsave
0.000 setgray
fill
grestore
stroke
grestore
} bind def
72 356.795 o
grestore
gsave
/o {
gsave
newpath
translate
0.5 setlinewidth
1 setlinejoin
0 setlinecap
0 0 m
-2 0 l
gsave
0.000 setgray
fill
grestore
stroke
grestore
} bind def
518.4 356.795 o
grestore
gsave
/o {
gsave
newpath
translate
0.5 setlinewidth
1 setlinejoin
0 setlinecap
0 0 m
2 0 l
gsave
0.000 setgray
fill
grestore
stroke
grestore
} bind def
72 369.21 o
grestore
gsave
/o {
gsave
newpath
translate
0.5 setlinewidth
1 setlinejoin
0 setlinecap
0 0 m
-2 0 l
gsave
0.000 setgray
fill
grestore
stroke
grestore
} bind def
518.4 369.21 o
grestore
gsave
/o {
gsave
newpath
translate
0.5 setlinewidth
1 setlinejoin
0 setlinecap
0 0 m
2 0 l
gsave
0.000 setgray
fill
grestore
stroke
grestore
} bind def
72 379.707 o
grestore
gsave
/o {
gsave
newpath
translate
0.5 setlinewidth
1 setlinejoin
0 setlinecap
0 0 m
-2 0 l
gsave
0.000 setgray
fill
grestore
stroke
grestore
} bind def
518.4 379.707 o
grestore
gsave
/o {
gsave
newpath
translate
0.5 setlinewidth
1 setlinejoin
0 setlinecap
0 0 m
2 0 l
gsave
0.000 setgray
fill
grestore
stroke
grestore
} bind def
72 388.8 o
grestore
gsave
/o {
gsave
newpath
translate
0.5 setlinewidth
1 setlinejoin
0 setlinecap
0 0 m
-2 0 l
gsave
0.000 setgray
fill
grestore
stroke
grestore
} bind def
518.4 388.8 o
grestore
gsave
36.500000 171.617188 translate
90.000000 rotate
0.000000 0.000000 m /I glyphshow
3.539062 0.000000 m /n glyphshow
11.144531 0.000000 m /t glyphshow
15.849609 0.000000 m /e glyphshow
23.232422 0.000000 m /n glyphshow
30.837891 0.000000 m /s glyphshow
37.089844 0.000000 m /i glyphshow
40.423828 0.000000 m /t glyphshow
45.128906 0.000000 m /y glyphshow
52.230469 0.000000 m /space glyphshow
56.044922 0.000000 m /parenleft glyphshow
60.726562 0.000000 m /A glyphshow
68.685547 0.000000 m /period glyphshow
72.500000 0.000000 m /U glyphshow
81.283203 0.000000 m /period glyphshow
85.097656 0.000000 m /parenright glyphshow
grestore
1.000 setlinewidth
gsave
72 388.8 m
518.4 388.8 l
stroke
grestore
gsave
518.4 43.2 m
518.4 388.8 l
stroke
grestore
gsave
72 43.2 m
518.4 43.2 l
stroke
grestore
gsave
72 43.2 m
72 388.8 l
stroke
grestore
gsave
393.813 356.533 m
511.2 356.533 l
511.2 381.6 l
393.813 381.6 l
393.813 356.533 l
cl
gsave
1.000 setgray
fill
grestore
stroke
grestore
/p1_0 {
newpath
translate
403.893 363.039 m
403.893 377.439 l
} bind def
/p1_1 {
newpath
translate
424.053 363.039 m
424.053 377.439 l
} bind def
0.000 0.000 1.000 setrgbcolor
gsave
0 0 p1_0
stroke
grestore
gsave
0 0 p1_1
stroke
grestore
0.500 setlinewidth
gsave
/o {
gsave
newpath
translate
0.5 setlinewidth
1 setlinejoin
0 setlinecap
3 -1.83697e-16 m
-3 1.83697e-16 l
gsave
0.000 0.000 1.000 setrgbcolor
fill
grestore
stroke
grestore
} bind def
403.893 363.039 o
424.053 363.039 o
grestore
gsave
/o {
gsave
newpath
translate
0.5 setlinewidth
1 setlinejoin
0 setlinecap
3 -1.83697e-16 m
-3 1.83697e-16 l
gsave
0.000 0.000 1.000 setrgbcolor
fill
grestore
stroke
grestore
} bind def
403.893 377.439 o
424.053 377.439 o
grestore
1.000 setlinewidth
2 setlinecap
gsave
403.893 370.239 m
424.053 370.239 l
stroke
grestore
0.000 setgray
/BitstreamVeraSans-Roman findfont
14.400 scalefont
setfont
gsave
439.893125 365.199375 translate
0.000000 rotate
0.000000 0.000000 m /N glyphshow
10.764862 0.000000 m /a glyphshow
19.583328 0.000000 m /n glyphshow
28.703949 0.000000 m /o glyphshow
37.508362 0.000000 m /S glyphshow
46.643036 0.000000 m /t glyphshow
52.285446 0.000000 m /a glyphshow
61.103912 0.000000 m /r glyphshow
grestore

end
showpage
